{
  "extensionDescription": {
    "message": "Beschermt tegen tracking via het \"gratis\", gecentraliseerd, verzorgen van content.",
    "description": "Extension description."
  },
  "amountInjectedTitle": {
    "message": "Teller voor lokaal geïnjecteerde bestanden",
    "description": "Amount injected title."
  },
  "amountInjectedDescription": {
    "message": "Aantal lokale Content Delivery Network-bestandsinjecties sinds installatie.",
    "description": "Amount injected description."
  },
  "optionsTitle": {
    "message": "Opties",
    "description": "Options title."
  },
  "showIconBadgeTitle": {
    "message": "Getelde injecties op icoon weergeven",
    "description": "Show icon badge title."
  },
  "showIconBadgeDescription": {
    "message": "Toon het aantal geïnjecteerde bestanden op het extensie-icoon.",
    "description": "Show icon badge description."
  },
  "blockMissingTitle": {
    "message": "Verzoeken voor ontbrekende items blokkeren",
    "description": "Block requests for missing resources title."
  },
  "blockMissingDescription": {
    "message": "Annuleer een onderschept verzoek wanneer het bestand niet lokaal beschikbaar is.",
    "description": "Block requests for missing resources description."
  },
  "disablePrefetchTitle": {
    "message": "Link prefetching uitschakelen",
    "description": "Disable prefetch title."
  },
  "disablePrefetchDescription": {
    "message": "Voorkom dat geweigerde verzoeken naar afleveringsnetwerken uitlekken.",
    "description": "Disable prefetch description."
  },
  "stripMetadataTitle": {
    "message": "Metadata uit toegestane verzoeken verwijderen",
    "description": "Strip metadata title."
  },
  "stripMetadataDescription": {
    "message": "Wis gevoelige gegevens uit toegestane CDN-verzoeken voor verbeterde privacy.",
    "description": "Strip metadata description."
  },
  "whitelistedDomainsTitle": {
    "message": "Sluit domeinen uit van inspecties",
    "description": "Whitelisted domains title."
  },
  "whitelistedDomainsDescription": {
    "message": "Voer de te negeren domeinen in. Scheid de waarden met puntkomma's (;).",
    "description": "Whitelisted domains description."
  },
  "advancedLabel": {
    "message": "Geavanceerd",
    "description": "Advanced label."
  },
  "generateRuleSetTitle": {
    "message": "Genereer regelsets voor uBlock of uMatrix",
    "description": "Generate rule set title."
  },
  "generateRuleSetDescription": {
    "message": "",
    "description": "In case you're using uBlock or uMatrix you can generate the rules here. You have to add these rules manually in uBlock or uMatrix."
  },
  "lastUpdate": {
      "message": "",
      "description": "Last update."
  },
  "copyRuleSet": {
    "message": "",
    "description": "Text of button to copy ruleset."
  },
  "loggingTitle": {
    "message": "",
    "description": "Enable logging in browser console."
  },
  "loggingDescription": {
    "message": "",
    "description": "Open \"Browser Console\" ( CTRL + SHIFT + J ) to show missing resources."
  },
  "hideReleaseNotesTitle": {
    "message": "",
    "description": "Disable release notes"
  },
  "hideReleaseNotesDescription": {
    "message": "",
    "description": "If enabled, you wont receive any information about new features in LocalCDN. This includes information about new uBlock/uMatrix rules."
  },
  "featureBreaksWebsitesDescription": {
    "message": "",
    "description": "This feature breaks websites. Do not leave it enabled, unless you are prepared to manually whitelist any affected domains."
  },
  "featureBreaksWebsitesButton": {
    "message": "",
    "description": "Disable"
  },
  "labelManipulateDOM": {
    "message": "",
    "description": "Filters HTML source code"
  },
  "labelShowMoreInjections": {
    "message": "",
    "description": "Show more Injections"
  },
  "labelDonate": {
    "message": "",
    "description": "Donate"
  }
}
